-- Merging decision tree log ---
manifest
ADDED from C:\Users\Fergunson\Documents\Android\master\app\src\main\AndroidManifest.xml:1:39-51:12
INJECTED from C:\Users\Fergunson\Documents\Android\master\app\src\main\AndroidManifest.xml:1:39-51:12
INJECTED from C:\Users\Fergunson\Documents\Android\master\app\src\main\AndroidManifest.xml:1:39-51:12
INJECTED from C:\Users\Fergunson\Documents\Android\master\app\src\main\AndroidManifest.xml:1:39-51:12
MERGED from [com.google.firebase:firebase-messaging:17.3.4] C:\Users\Fergunson\.gradle\caches\transforms-1\files-1.1\firebase-messaging-17.3.4.aar\345af26e70a138e80826d69adcfaba4e\AndroidManifest.xml:17:1-37:12
MERGED from [com.android.support:design:24.2.1] C:\Users\Fergunson\.gradle\caches\transforms-1\files-1.1\design-24.2.1.aar\b53c9f1aa7d08be09c6c07fd08f06668\AndroidManifest.xml:17:1-24:12
MERGED from [com.google.android.gms:play-services-maps:16.0.0] C:\Users\Fergunson\.gradle\caches\transforms-1\files-1.1\play-services-maps-16.0.0.aar\e9c47bd033686e3f8ce2b09aadaa74ad\AndroidManifest.xml:17:1-32:12
MERGED from [com.google.android.gms:play-services-auth:16.0.1] C:\Users\Fergunson\.gradle\caches\transforms-1\files-1.1\play-services-auth-16.0.1.aar\f00e955047842bd16a6a2ceef8236d11\AndroidManifest.xml:17:1-39:12
MERGED from [com.google.firebase:firebase-iid:17.0.4] C:\Users\Fergunson\.gradle\caches\transforms-1\files-1.1\firebase-iid-17.0.4.aar\e4ef93544e42eb8655f1ee13632bcb9f\AndroidManifest.xml:17:1-59:12
MERGED from [com.google.firebase:firebase-common:16.0.3] C:\Users\Fergunson\.gradle\caches\transforms-1\files-1.1\firebase-common-16.0.3.aar\fb1fa454f4f9249963f7559571b56cee\AndroidManifest.xml:2:1-17:12
MERGED from [com.google.android.gms:play-services-auth-api-phone:16.0.0] C:\Users\Fergunson\.gradle\caches\transforms-1\files-1.1\play-services-auth-api-phone-16.0.0.aar\4e4b8c436c77c5f5dacabcd941201156\AndroidManifest.xml:2:1-7:12
MERGED from [com.google.android.gms:play-services-auth-base:16.0.0] C:\Users\Fergunson\.gradle\caches\transforms-1\files-1.1\play-services-auth-base-16.0.0.aar\fa459a8b2dfdd20346bd0d88070e3f37\AndroidManifest.xml:2:1-7:12
MERGED from [com.google.firebase:firebase-iid-interop:16.0.1] C:\Users\Fergunson\.gradle\caches\transforms-1\files-1.1\firebase-iid-interop-16.0.1.aar\d7dbd671fc894247ea0f07ca44a9c8f3\AndroidManifest.xml:2:1-10:12
MERGED from [com.google.android.gms:play-services-base:16.0.1] C:\Users\Fergunson\.gradle\caches\transforms-1\files-1.1\play-services-base-16.0.1.aar\2d7361cf6b12c199d3563a9880d88c6f\AndroidManifest.xml:17:1-29:12
MERGED from [com.google.android.gms:play-services-tasks:16.0.1] C:\Users\Fergunson\.gradle\caches\transforms-1\files-1.1\play-services-tasks-16.0.1.aar\9ac4e56379e6bfa5b4d7935c160b85ff\AndroidManifest.xml:2:1-9:12
MERGED from [com.google.firebase:firebase-measurement-connector:17.0.1] C:\Users\Fergunson\.gradle\caches\transforms-1\files-1.1\firebase-measurement-connector-17.0.1.aar\892532ba9b8299b85eee281c802f74eb\AndroidManifest.xml:17:1-25:12
MERGED from [com.google.android.gms:play-services-stats:16.0.1] C:\Users\Fergunson\.gradle\caches\transforms-1\files-1.1\play-services-stats-16.0.1.aar\b881d45c15116a9649b3cb0a9147d0b1\AndroidManifest.xml:2:1-9:12
MERGED from [com.google.android.gms:play-services-basement:16.0.1] C:\Users\Fergunson\.gradle\caches\transforms-1\files-1.1\play-services-basement-16.0.1.aar\8761bde231eae24adaa6643b550a04fc\AndroidManifest.xml:17:1-28:12
MERGED from [com.android.support:appcompat-v7:24.2.1] C:\Users\Fergunson\.gradle\caches\transforms-1\files-1.1\appcompat-v7-24.2.1.aar\da6a23146a7214a2258acd20fcfbc260\AndroidManifest.xml:17:1-27:12
MERGED from [com.android.support:support-v4:26.1.0] C:\Users\Fergunson\.gradle\caches\transforms-1\files-1.1\support-v4-26.1.0.aar\c94818dc448c362304bf3c2bf6a8e457\AndroidManifest.xml:17:1-31:12
MERGED from [com.android.support.constraint:constraint-layout:1.1.3] C:\Users\Fergunson\.gradle\caches\transforms-1\files-1.1\constraint-layout-1.1.3.aar\f80855f45f825ed87a7ac9dd9e4d32ad\AndroidManifest.xml:2:1-11:12
MERGED from [com.android.support:multidex:1.0.3] C:\Users\Fergunson\.gradle\caches\transforms-1\files-1.1\multidex-1.0.3.aar\22b7df3751009aebc9efc49a9951fac0\AndroidManifest.xml:17:1-22:12
MERGED from [com.android.support:recyclerview-v7:24.2.1] C:\Users\Fergunson\.gradle\caches\transforms-1\files-1.1\recyclerview-v7-24.2.1.aar\4e26decaa08fab4bf19e8a3526817e66\AndroidManifest.xml:17:1-22:12
MERGED from [com.android.support:animated-vector-drawable:24.2.1] C:\Users\Fergunson\.gradle\caches\transforms-1\files-1.1\animated-vector-drawable-24.2.1.aar\36f3ba6e6b65804a29f7038c9680fa93\AndroidManifest.xml:17:1-24:12
MERGED from [com.android.support:support-vector-drawable:24.2.1] C:\Users\Fergunson\.gradle\caches\transforms-1\files-1.1\support-vector-drawable-24.2.1.aar\0e5ea6b82df5e194182d3838c1614484\AndroidManifest.xml:17:1-25:12
MERGED from [com.android.support:support-media-compat:26.1.0] C:\Users\Fergunson\.gradle\caches\transforms-1\files-1.1\support-media-compat-26.1.0.aar\97e66577501341e0684c734686d6acd7\AndroidManifest.xml:17:1-31:12
MERGED from [com.android.support:support-fragment:26.1.0] C:\Users\Fergunson\.gradle\caches\transforms-1\files-1.1\support-fragment-26.1.0.aar\6de5fa51dbd37165e49b974522e20e6a\AndroidManifest.xml:17:1-31:12
MERGED from [com.android.support:support-core-utils:26.1.0] C:\Users\Fergunson\.gradle\caches\transforms-1\files-1.1\support-core-utils-26.1.0.aar\0bf3d4c16eee3d1aa88d7e7dcab71931\AndroidManifest.xml:17:1-31:12
MERGED from [com.android.support:support-core-ui:26.1.0] C:\Users\Fergunson\.gradle\caches\transforms-1\files-1.1\support-core-ui-26.1.0.aar\6e3397963cca2dadb9ceab45983546bd\AndroidManifest.xml:17:1-31:12
MERGED from [com.android.support:support-compat:26.1.0] C:\Users\Fergunson\.gradle\caches\transforms-1\files-1.1\support-compat-26.1.0.aar\dfb547d372e3db53f84832477c343248\AndroidManifest.xml:17:1-31:12
MERGED from [android.arch.lifecycle:runtime:1.0.0] C:\Users\Fergunson\.gradle\caches\transforms-1\files-1.1\runtime-1.0.0.aar\b201c2d9f6faf66969c035c126d62dd6\AndroidManifest.xml:17:1-30:12
INJECTED from C:\Users\Fergunson\Documents\Android\master\app\src\main\AndroidManifest.xml:1:39-51:12
INJECTED from C:\Users\Fergunson\Documents\Android\master\app\src\main\AndroidManifest.xml:1:39-51:12
INJECTED from C:\Users\Fergunson\Documents\Android\master\app\src\main\AndroidManifest.xml:1:39-51:12
	package
		ADDED from C:\Users\Fergunson\Documents\Android\master\app\src\main\AndroidManifest.xml:2:1-35
		INJECTED from C:\Users\Fergunson\Documents\Android\master\app\src\main\AndroidManifest.xml
		INJECTED from C:\Users\Fergunson\Documents\Android\master\app\src\main\AndroidManifest.xml
	android:versionName
		INJECTED from C:\Users\Fergunson\Documents\Android\master\app\src\main\AndroidManifest.xml
		ADDED from C:\Users\Fergunson\Documents\Android\master\app\src\main\AndroidManifest.xml:1:39-51:12
		INJECTED from C:\Users\Fergunson\Documents\Android\master\app\src\main\AndroidManifest.xml
	android:versionCode
		INJECTED from C:\Users\Fergunson\Documents\Android\master\app\src\main\AndroidManifest.xml
		ADDED from C:\Users\Fergunson\Documents\Android\master\app\src\main\AndroidManifest.xml:1:39-51:12
		INJECTED from C:\Users\Fergunson\Documents\Android\master\app\src\main\AndroidManifest.xml
	xmlns:android
		ADDED from C:\Users\Fergunson\Documents\Android\master\app\src\main\AndroidManifest.xml:1:49-107
uses-permission#android.permission.ACCESS_FINE_LOCATION
ADDED from C:\Users\Fergunson\Documents\Android\master\app\src\main\AndroidManifest.xml:3:1-75
	android:name
		ADDED from C:\Users\Fergunson\Documents\Android\master\app\src\main\AndroidManifest.xml:3:18-72
uses-permission#android.permission.INTERNET
ADDED from C:\Users\Fergunson\Documents\Android\master\app\src\main\AndroidManifest.xml:4:1-63
MERGED from [com.google.android.gms:play-services-maps:16.0.0] C:\Users\Fergunson\.gradle\caches\transforms-1\files-1.1\play-services-maps-16.0.0.aar\e9c47bd033686e3f8ce2b09aadaa74ad\AndroidManifest.xml:24:5-67
MERGED from [com.google.android.gms:play-services-maps:16.0.0] C:\Users\Fergunson\.gradle\caches\transforms-1\files-1.1\play-services-maps-16.0.0.aar\e9c47bd033686e3f8ce2b09aadaa74ad\AndroidManifest.xml:24:5-67
MERGED from [com.google.firebase:firebase-iid:17.0.4] C:\Users\Fergunson\.gradle\caches\transforms-1\files-1.1\firebase-iid-17.0.4.aar\e4ef93544e42eb8655f1ee13632bcb9f\AndroidManifest.xml:23:5-67
MERGED from [com.google.firebase:firebase-iid:17.0.4] C:\Users\Fergunson\.gradle\caches\transforms-1\files-1.1\firebase-iid-17.0.4.aar\e4ef93544e42eb8655f1ee13632bcb9f\AndroidManifest.xml:23:5-67
	android:name
		ADDED from C:\Users\Fergunson\Documents\Android\master\app\src\main\AndroidManifest.xml:4:18-60
uses-permission#android.permission.SYSTEM_ALERT_WINDOW
ADDED from C:\Users\Fergunson\Documents\Android\master\app\src\main\AndroidManifest.xml:5:1-74
	android:name
		ADDED from C:\Users\Fergunson\Documents\Android\master\app\src\main\AndroidManifest.xml:5:18-71
uses-permission#android.permission.ACCESS_COARSE_LOCATION
ADDED from C:\Users\Fergunson\Documents\Android\master\app\src\main\AndroidManifest.xml:6:1-77
	android:name
		ADDED from C:\Users\Fergunson\Documents\Android\master\app\src\main\AndroidManifest.xml:6:18-74
application
ADDED from C:\Users\Fergunson\Documents\Android\master\app\src\main\AndroidManifest.xml:8:1-49:15
MERGED from [com.google.firebase:firebase-messaging:17.3.4] C:\Users\Fergunson\.gradle\caches\transforms-1\files-1.1\firebase-messaging-17.3.4.aar\345af26e70a138e80826d69adcfaba4e\AndroidManifest.xml:22:5-35:19
MERGED from [com.google.firebase:firebase-messaging:17.3.4] C:\Users\Fergunson\.gradle\caches\transforms-1\files-1.1\firebase-messaging-17.3.4.aar\345af26e70a138e80826d69adcfaba4e\AndroidManifest.xml:22:5-35:19
MERGED from [com.android.support:design:24.2.1] C:\Users\Fergunson\.gradle\caches\transforms-1\files-1.1\design-24.2.1.aar\b53c9f1aa7d08be09c6c07fd08f06668\AndroidManifest.xml:22:5-20
MERGED from [com.android.support:design:24.2.1] C:\Users\Fergunson\.gradle\caches\transforms-1\files-1.1\design-24.2.1.aar\b53c9f1aa7d08be09c6c07fd08f06668\AndroidManifest.xml:22:5-20
MERGED from [com.google.android.gms:play-services-maps:16.0.0] C:\Users\Fergunson\.gradle\caches\transforms-1\files-1.1\play-services-maps-16.0.0.aar\e9c47bd033686e3f8ce2b09aadaa74ad\AndroidManifest.xml:30:5-20
MERGED from [com.google.android.gms:play-services-maps:16.0.0] C:\Users\Fergunson\.gradle\caches\transforms-1\files-1.1\play-services-maps-16.0.0.aar\e9c47bd033686e3f8ce2b09aadaa74ad\AndroidManifest.xml:30:5-20
MERGED from [com.google.android.gms:play-services-auth:16.0.1] C:\Users\Fergunson\.gradle\caches\transforms-1\files-1.1\play-services-auth-16.0.1.aar\f00e955047842bd16a6a2ceef8236d11\AndroidManifest.xml:22:5-37:19
MERGED from [com.google.android.gms:play-services-auth:16.0.1] C:\Users\Fergunson\.gradle\caches\transforms-1\files-1.1\play-services-auth-16.0.1.aar\f00e955047842bd16a6a2ceef8236d11\AndroidManifest.xml:22:5-37:19
MERGED from [com.google.firebase:firebase-iid:17.0.4] C:\Users\Fergunson\.gradle\caches\transforms-1\files-1.1\firebase-iid-17.0.4.aar\e4ef93544e42eb8655f1ee13632bcb9f\AndroidManifest.xml:28:5-57:19
MERGED from [com.google.firebase:firebase-iid:17.0.4] C:\Users\Fergunson\.gradle\caches\transforms-1\files-1.1\firebase-iid-17.0.4.aar\e4ef93544e42eb8655f1ee13632bcb9f\AndroidManifest.xml:28:5-57:19
MERGED from [com.google.firebase:firebase-common:16.0.3] C:\Users\Fergunson\.gradle\caches\transforms-1\files-1.1\firebase-common-16.0.3.aar\fb1fa454f4f9249963f7559571b56cee\AndroidManifest.xml:9:5-15:19
MERGED from [com.google.firebase:firebase-common:16.0.3] C:\Users\Fergunson\.gradle\caches\transforms-1\files-1.1\firebase-common-16.0.3.aar\fb1fa454f4f9249963f7559571b56cee\AndroidManifest.xml:9:5-15:19
MERGED from [com.google.firebase:firebase-iid-interop:16.0.1] C:\Users\Fergunson\.gradle\caches\transforms-1\files-1.1\firebase-iid-interop-16.0.1.aar\d7dbd671fc894247ea0f07ca44a9c8f3\AndroidManifest.xml:7:5-8:19
MERGED from [com.google.firebase:firebase-iid-interop:16.0.1] C:\Users\Fergunson\.gradle\caches\transforms-1\files-1.1\firebase-iid-interop-16.0.1.aar\d7dbd671fc894247ea0f07ca44a9c8f3\AndroidManifest.xml:7:5-8:19
MERGED from [com.google.android.gms:play-services-base:16.0.1] C:\Users\Fergunson\.gradle\caches\transforms-1\files-1.1\play-services-base-16.0.1.aar\2d7361cf6b12c199d3563a9880d88c6f\AndroidManifest.xml:22:5-27:19
MERGED from [com.google.android.gms:play-services-base:16.0.1] C:\Users\Fergunson\.gradle\caches\transforms-1\files-1.1\play-services-base-16.0.1.aar\2d7361cf6b12c199d3563a9880d88c6f\AndroidManifest.xml:22:5-27:19
MERGED from [com.google.android.gms:play-services-tasks:16.0.1] C:\Users\Fergunson\.gradle\caches\transforms-1\files-1.1\play-services-tasks-16.0.1.aar\9ac4e56379e6bfa5b4d7935c160b85ff\AndroidManifest.xml:7:5-20
MERGED from [com.google.android.gms:play-services-tasks:16.0.1] C:\Users\Fergunson\.gradle\caches\transforms-1\files-1.1\play-services-tasks-16.0.1.aar\9ac4e56379e6bfa5b4d7935c160b85ff\AndroidManifest.xml:7:5-20
MERGED from [com.google.firebase:firebase-measurement-connector:17.0.1] C:\Users\Fergunson\.gradle\caches\transforms-1\files-1.1\firebase-measurement-connector-17.0.1.aar\892532ba9b8299b85eee281c802f74eb\AndroidManifest.xml:22:5-23:19
MERGED from [com.google.firebase:firebase-measurement-connector:17.0.1] C:\Users\Fergunson\.gradle\caches\transforms-1\files-1.1\firebase-measurement-connector-17.0.1.aar\892532ba9b8299b85eee281c802f74eb\AndroidManifest.xml:22:5-23:19
MERGED from [com.google.android.gms:play-services-stats:16.0.1] C:\Users\Fergunson\.gradle\caches\transforms-1\files-1.1\play-services-stats-16.0.1.aar\b881d45c15116a9649b3cb0a9147d0b1\AndroidManifest.xml:7:5-20
MERGED from [com.google.android.gms:play-services-stats:16.0.1] C:\Users\Fergunson\.gradle\caches\transforms-1\files-1.1\play-services-stats-16.0.1.aar\b881d45c15116a9649b3cb0a9147d0b1\AndroidManifest.xml:7:5-20
MERGED from [com.google.android.gms:play-services-basement:16.0.1] C:\Users\Fergunson\.gradle\caches\transforms-1\files-1.1\play-services-basement-16.0.1.aar\8761bde231eae24adaa6643b550a04fc\AndroidManifest.xml:22:5-26:19
MERGED from [com.google.android.gms:play-services-basement:16.0.1] C:\Users\Fergunson\.gradle\caches\transforms-1\files-1.1\play-services-basement-16.0.1.aar\8761bde231eae24adaa6643b550a04fc\AndroidManifest.xml:22:5-26:19
MERGED from [com.android.support:appcompat-v7:24.2.1] C:\Users\Fergunson\.gradle\caches\transforms-1\files-1.1\appcompat-v7-24.2.1.aar\da6a23146a7214a2258acd20fcfbc260\AndroidManifest.xml:25:5-20
MERGED from [com.android.support:appcompat-v7:24.2.1] C:\Users\Fergunson\.gradle\caches\transforms-1\files-1.1\appcompat-v7-24.2.1.aar\da6a23146a7214a2258acd20fcfbc260\AndroidManifest.xml:25:5-20
MERGED from [com.android.support:support-v4:26.1.0] C:\Users\Fergunson\.gradle\caches\transforms-1\files-1.1\support-v4-26.1.0.aar\c94818dc448c362304bf3c2bf6a8e457\AndroidManifest.xml:25:5-29:19
MERGED from [com.android.support:support-v4:26.1.0] C:\Users\Fergunson\.gradle\caches\transforms-1\files-1.1\support-v4-26.1.0.aar\c94818dc448c362304bf3c2bf6a8e457\AndroidManifest.xml:25:5-29:19
MERGED from [com.android.support.constraint:constraint-layout:1.1.3] C:\Users\Fergunson\.gradle\caches\transforms-1\files-1.1\constraint-layout-1.1.3.aar\f80855f45f825ed87a7ac9dd9e4d32ad\AndroidManifest.xml:9:5-20
MERGED from [com.android.support.constraint:constraint-layout:1.1.3] C:\Users\Fergunson\.gradle\caches\transforms-1\files-1.1\constraint-layout-1.1.3.aar\f80855f45f825ed87a7ac9dd9e4d32ad\AndroidManifest.xml:9:5-20
MERGED from [com.android.support:animated-vector-drawable:24.2.1] C:\Users\Fergunson\.gradle\caches\transforms-1\files-1.1\animated-vector-drawable-24.2.1.aar\36f3ba6e6b65804a29f7038c9680fa93\AndroidManifest.xml:22:5-20
MERGED from [com.android.support:animated-vector-drawable:24.2.1] C:\Users\Fergunson\.gradle\caches\transforms-1\files-1.1\animated-vector-drawable-24.2.1.aar\36f3ba6e6b65804a29f7038c9680fa93\AndroidManifest.xml:22:5-20
MERGED from [com.android.support:support-vector-drawable:24.2.1] C:\Users\Fergunson\.gradle\caches\transforms-1\files-1.1\support-vector-drawable-24.2.1.aar\0e5ea6b82df5e194182d3838c1614484\AndroidManifest.xml:23:5-20
MERGED from [com.android.support:support-vector-drawable:24.2.1] C:\Users\Fergunson\.gradle\caches\transforms-1\files-1.1\support-vector-drawable-24.2.1.aar\0e5ea6b82df5e194182d3838c1614484\AndroidManifest.xml:23:5-20
MERGED from [com.android.support:support-media-compat:26.1.0] C:\Users\Fergunson\.gradle\caches\transforms-1\files-1.1\support-media-compat-26.1.0.aar\97e66577501341e0684c734686d6acd7\AndroidManifest.xml:25:5-29:19
MERGED from [com.android.support:support-media-compat:26.1.0] C:\Users\Fergunson\.gradle\caches\transforms-1\files-1.1\support-media-compat-26.1.0.aar\97e66577501341e0684c734686d6acd7\AndroidManifest.xml:25:5-29:19
MERGED from [com.android.support:support-fragment:26.1.0] C:\Users\Fergunson\.gradle\caches\transforms-1\files-1.1\support-fragment-26.1.0.aar\6de5fa51dbd37165e49b974522e20e6a\AndroidManifest.xml:25:5-29:19
MERGED from [com.android.support:support-fragment:26.1.0] C:\Users\Fergunson\.gradle\caches\transforms-1\files-1.1\support-fragment-26.1.0.aar\6de5fa51dbd37165e49b974522e20e6a\AndroidManifest.xml:25:5-29:19
MERGED from [com.android.support:support-core-utils:26.1.0] C:\Users\Fergunson\.gradle\caches\transforms-1\files-1.1\support-core-utils-26.1.0.aar\0bf3d4c16eee3d1aa88d7e7dcab71931\AndroidManifest.xml:25:5-29:19
MERGED from [com.android.support:support-core-utils:26.1.0] C:\Users\Fergunson\.gradle\caches\transforms-1\files-1.1\support-core-utils-26.1.0.aar\0bf3d4c16eee3d1aa88d7e7dcab71931\AndroidManifest.xml:25:5-29:19
MERGED from [com.android.support:support-core-ui:26.1.0] C:\Users\Fergunson\.gradle\caches\transforms-1\files-1.1\support-core-ui-26.1.0.aar\6e3397963cca2dadb9ceab45983546bd\AndroidManifest.xml:25:5-29:19
MERGED from [com.android.support:support-core-ui:26.1.0] C:\Users\Fergunson\.gradle\caches\transforms-1\files-1.1\support-core-ui-26.1.0.aar\6e3397963cca2dadb9ceab45983546bd\AndroidManifest.xml:25:5-29:19
MERGED from [com.android.support:support-compat:26.1.0] C:\Users\Fergunson\.gradle\caches\transforms-1\files-1.1\support-compat-26.1.0.aar\dfb547d372e3db53f84832477c343248\AndroidManifest.xml:25:5-29:19
MERGED from [com.android.support:support-compat:26.1.0] C:\Users\Fergunson\.gradle\caches\transforms-1\files-1.1\support-compat-26.1.0.aar\dfb547d372e3db53f84832477c343248\AndroidManifest.xml:25:5-29:19
MERGED from [android.arch.lifecycle:runtime:1.0.0] C:\Users\Fergunson\.gradle\caches\transforms-1\files-1.1\runtime-1.0.0.aar\b201c2d9f6faf66969c035c126d62dd6\AndroidManifest.xml:24:5-28:19
MERGED from [android.arch.lifecycle:runtime:1.0.0] C:\Users\Fergunson\.gradle\caches\transforms-1\files-1.1\runtime-1.0.0.aar\b201c2d9f6faf66969c035c126d62dd6\AndroidManifest.xml:24:5-28:19
	android:supportsRtl
		ADDED from C:\Users\Fergunson\Documents\Android\master\app\src\main\AndroidManifest.xml:15:5-31
	android:label
		ADDED from C:\Users\Fergunson\Documents\Android\master\app\src\main\AndroidManifest.xml:13:5-37
	android:hardwareAccelerated
		ADDED from C:\Users\Fergunson\Documents\Android\master\app\src\main\AndroidManifest.xml:11:5-40
	android:largeHeap
		ADDED from C:\Users\Fergunson\Documents\Android\master\app\src\main\AndroidManifest.xml:12:5-29
	android:icon
		ADDED from C:\Users\Fergunson\Documents\Android\master\app\src\main\AndroidManifest.xml:10:5-39
	android:allowBackup
		ADDED from C:\Users\Fergunson\Documents\Android\master\app\src\main\AndroidManifest.xml:9:5-31
	android:theme
		ADDED from C:\Users\Fergunson\Documents\Android\master\app\src\main\AndroidManifest.xml:16:5-43
	android:usesCleartextTraffic
		ADDED from C:\Users\Fergunson\Documents\Android\master\app\src\main\AndroidManifest.xml:14:5-40
uses-library#org.apache.http.legacy
ADDED from C:\Users\Fergunson\Documents\Android\master\app\src\main\AndroidManifest.xml:17:5-83
	android:required
		ADDED from C:\Users\Fergunson\Documents\Android\master\app\src\main\AndroidManifest.xml:17:57-81
	android:name
		ADDED from C:\Users\Fergunson\Documents\Android\master\app\src\main\AndroidManifest.xml:17:19-56
activity#com.ufla.fsouza.starview.MainActivity
ADDED from C:\Users\Fergunson\Documents\Android\master\app\src\main\AndroidManifest.xml:19:5-30:16
	android:screenOrientation
		ADDED from C:\Users\Fergunson\Documents\Android\master\app\src\main\AndroidManifest.xml:23:9-45
	android:label
		ADDED from C:\Users\Fergunson\Documents\Android\master\app\src\main\AndroidManifest.xml:21:9-41
	android:theme
		ADDED from C:\Users\Fergunson\Documents\Android\master\app\src\main\AndroidManifest.xml:22:9-47
	android:name
		ADDED from C:\Users\Fergunson\Documents\Android\master\app\src\main\AndroidManifest.xml:20:9-37
intent-filter#action:name:android.intent.action.MAIN+category:name:android.intent.category.LAUNCHER
ADDED from C:\Users\Fergunson\Documents\Android\master\app\src\main\AndroidManifest.xml:25:9-29:25
action#android.intent.action.MAIN
ADDED from C:\Users\Fergunson\Documents\Android\master\app\src\main\AndroidManifest.xml:26:13-65
	android:name
		ADDED from C:\Users\Fergunson\Documents\Android\master\app\src\main\AndroidManifest.xml:26:21-62
category#android.intent.category.LAUNCHER
ADDED from C:\Users\Fergunson\Documents\Android\master\app\src\main\AndroidManifest.xml:28:13-73
	android:name
		ADDED from C:\Users\Fergunson\Documents\Android\master\app\src\main\AndroidManifest.xml:28:23-70
activity#com.ufla.fsouza.starview.Home
ADDED from C:\Users\Fergunson\Documents\Android\master\app\src\main\AndroidManifest.xml:32:5-35:47
	android:screenOrientation
		ADDED from C:\Users\Fergunson\Documents\Android\master\app\src\main\AndroidManifest.xml:35:9-45
	android:theme
		ADDED from C:\Users\Fergunson\Documents\Android\master\app\src\main\AndroidManifest.xml:34:9-47
	android:name
		ADDED from C:\Users\Fergunson\Documents\Android\master\app\src\main\AndroidManifest.xml:33:9-29
meta-data#com.google.android.geo.API_KEY
ADDED from C:\Users\Fergunson\Documents\Android\master\app\src\main\AndroidManifest.xml:45:5-120
	android:value
		ADDED from C:\Users\Fergunson\Documents\Android\master\app\src\main\AndroidManifest.xml:45:62-117
	android:name
		ADDED from C:\Users\Fergunson\Documents\Android\master\app\src\main\AndroidManifest.xml:45:16-61
uses-sdk
INJECTED from C:\Users\Fergunson\Documents\Android\master\app\src\main\AndroidManifest.xml reason: use-sdk injection requested
INJECTED from C:\Users\Fergunson\Documents\Android\master\app\src\main\AndroidManifest.xml
INJECTED from C:\Users\Fergunson\Documents\Android\master\app\src\main\AndroidManifest.xml
MERGED from [com.google.firebase:firebase-messaging:17.3.4] C:\Users\Fergunson\.gradle\caches\transforms-1\files-1.1\firebase-messaging-17.3.4.aar\345af26e70a138e80826d69adcfaba4e\AndroidManifest.xml:20:5-44
MERGED from [com.google.firebase:firebase-messaging:17.3.4] C:\Users\Fergunson\.gradle\caches\transforms-1\files-1.1\firebase-messaging-17.3.4.aar\345af26e70a138e80826d69adcfaba4e\AndroidManifest.xml:20:5-44
MERGED from [com.android.support:design:24.2.1] C:\Users\Fergunson\.gradle\caches\transforms-1\files-1.1\design-24.2.1.aar\b53c9f1aa7d08be09c6c07fd08f06668\AndroidManifest.xml:20:5-43
MERGED from [com.android.support:design:24.2.1] C:\Users\Fergunson\.gradle\caches\transforms-1\files-1.1\design-24.2.1.aar\b53c9f1aa7d08be09c6c07fd08f06668\AndroidManifest.xml:20:5-43
MERGED from [com.google.android.gms:play-services-maps:16.0.0] C:\Users\Fergunson\.gradle\caches\transforms-1\files-1.1\play-services-maps-16.0.0.aar\e9c47bd033686e3f8ce2b09aadaa74ad\AndroidManifest.xml:20:5-44
MERGED from [com.google.android.gms:play-services-maps:16.0.0] C:\Users\Fergunson\.gradle\caches\transforms-1\files-1.1\play-services-maps-16.0.0.aar\e9c47bd033686e3f8ce2b09aadaa74ad\AndroidManifest.xml:20:5-44
MERGED from [com.google.android.gms:play-services-auth:16.0.1] C:\Users\Fergunson\.gradle\caches\transforms-1\files-1.1\play-services-auth-16.0.1.aar\f00e955047842bd16a6a2ceef8236d11\AndroidManifest.xml:20:5-44
MERGED from [com.google.android.gms:play-services-auth:16.0.1] C:\Users\Fergunson\.gradle\caches\transforms-1\files-1.1\play-services-auth-16.0.1.aar\f00e955047842bd16a6a2ceef8236d11\AndroidManifest.xml:20:5-44
MERGED from [com.google.firebase:firebase-iid:17.0.4] C:\Users\Fergunson\.gradle\caches\transforms-1\files-1.1\firebase-iid-17.0.4.aar\e4ef93544e42eb8655f1ee13632bcb9f\AndroidManifest.xml:20:5-44
MERGED from [com.google.firebase:firebase-iid:17.0.4] C:\Users\Fergunson\.gradle\caches\transforms-1\files-1.1\firebase-iid-17.0.4.aar\e4ef93544e42eb8655f1ee13632bcb9f\AndroidManifest.xml:20:5-44
MERGED from [com.google.firebase:firebase-common:16.0.3] C:\Users\Fergunson\.gradle\caches\transforms-1\files-1.1\firebase-common-16.0.3.aar\fb1fa454f4f9249963f7559571b56cee\AndroidManifest.xml:5:5-7:41
MERGED from [com.google.firebase:firebase-common:16.0.3] C:\Users\Fergunson\.gradle\caches\transforms-1\files-1.1\firebase-common-16.0.3.aar\fb1fa454f4f9249963f7559571b56cee\AndroidManifest.xml:5:5-7:41
MERGED from [com.google.android.gms:play-services-auth-api-phone:16.0.0] C:\Users\Fergunson\.gradle\caches\transforms-1\files-1.1\play-services-auth-api-phone-16.0.0.aar\4e4b8c436c77c5f5dacabcd941201156\AndroidManifest.xml:5:5-44
MERGED from [com.google.android.gms:play-services-auth-api-phone:16.0.0] C:\Users\Fergunson\.gradle\caches\transforms-1\files-1.1\play-services-auth-api-phone-16.0.0.aar\4e4b8c436c77c5f5dacabcd941201156\AndroidManifest.xml:5:5-44
MERGED from [com.google.android.gms:play-services-auth-base:16.0.0] C:\Users\Fergunson\.gradle\caches\transforms-1\files-1.1\play-services-auth-base-16.0.0.aar\fa459a8b2dfdd20346bd0d88070e3f37\AndroidManifest.xml:5:5-44
MERGED from [com.google.android.gms:play-services-auth-base:16.0.0] C:\Users\Fergunson\.gradle\caches\transforms-1\files-1.1\play-services-auth-base-16.0.0.aar\fa459a8b2dfdd20346bd0d88070e3f37\AndroidManifest.xml:5:5-44
MERGED from [com.google.firebase:firebase-iid-interop:16.0.1] C:\Users\Fergunson\.gradle\caches\transforms-1\files-1.1\firebase-iid-interop-16.0.1.aar\d7dbd671fc894247ea0f07ca44a9c8f3\AndroidManifest.xml:5:5-44
MERGED from [com.google.firebase:firebase-iid-interop:16.0.1] C:\Users\Fergunson\.gradle\caches\transforms-1\files-1.1\firebase-iid-interop-16.0.1.aar\d7dbd671fc894247ea0f07ca44a9c8f3\AndroidManifest.xml:5:5-44
MERGED from [com.google.android.gms:play-services-base:16.0.1] C:\Users\Fergunson\.gradle\caches\transforms-1\files-1.1\play-services-base-16.0.1.aar\2d7361cf6b12c199d3563a9880d88c6f\AndroidManifest.xml:20:5-44
MERGED from [com.google.android.gms:play-services-base:16.0.1] C:\Users\Fergunson\.gradle\caches\transforms-1\files-1.1\play-services-base-16.0.1.aar\2d7361cf6b12c199d3563a9880d88c6f\AndroidManifest.xml:20:5-44
MERGED from [com.google.android.gms:play-services-tasks:16.0.1] C:\Users\Fergunson\.gradle\caches\transforms-1\files-1.1\play-services-tasks-16.0.1.aar\9ac4e56379e6bfa5b4d7935c160b85ff\AndroidManifest.xml:5:5-44
MERGED from [com.google.android.gms:play-services-tasks:16.0.1] C:\Users\Fergunson\.gradle\caches\transforms-1\files-1.1\play-services-tasks-16.0.1.aar\9ac4e56379e6bfa5b4d7935c160b85ff\AndroidManifest.xml:5:5-44
MERGED from [com.google.firebase:firebase-measurement-connector:17.0.1] C:\Users\Fergunson\.gradle\caches\transforms-1\files-1.1\firebase-measurement-connector-17.0.1.aar\892532ba9b8299b85eee281c802f74eb\AndroidManifest.xml:20:5-44
MERGED from [com.google.firebase:firebase-measurement-connector:17.0.1] C:\Users\Fergunson\.gradle\caches\transforms-1\files-1.1\firebase-measurement-connector-17.0.1.aar\892532ba9b8299b85eee281c802f74eb\AndroidManifest.xml:20:5-44
MERGED from [com.google.android.gms:play-services-stats:16.0.1] C:\Users\Fergunson\.gradle\caches\transforms-1\files-1.1\play-services-stats-16.0.1.aar\b881d45c15116a9649b3cb0a9147d0b1\AndroidManifest.xml:5:5-44
MERGED from [com.google.android.gms:play-services-stats:16.0.1] C:\Users\Fergunson\.gradle\caches\transforms-1\files-1.1\play-services-stats-16.0.1.aar\b881d45c15116a9649b3cb0a9147d0b1\AndroidManifest.xml:5:5-44
MERGED from [com.google.android.gms:play-services-basement:16.0.1] C:\Users\Fergunson\.gradle\caches\transforms-1\files-1.1\play-services-basement-16.0.1.aar\8761bde231eae24adaa6643b550a04fc\AndroidManifest.xml:20:5-44
MERGED from [com.google.android.gms:play-services-basement:16.0.1] C:\Users\Fergunson\.gradle\caches\transforms-1\files-1.1\play-services-basement-16.0.1.aar\8761bde231eae24adaa6643b550a04fc\AndroidManifest.xml:20:5-44
MERGED from [com.android.support:appcompat-v7:24.2.1] C:\Users\Fergunson\.gradle\caches\transforms-1\files-1.1\appcompat-v7-24.2.1.aar\da6a23146a7214a2258acd20fcfbc260\AndroidManifest.xml:21:5-23:78
MERGED from [com.android.support:appcompat-v7:24.2.1] C:\Users\Fergunson\.gradle\caches\transforms-1\files-1.1\appcompat-v7-24.2.1.aar\da6a23146a7214a2258acd20fcfbc260\AndroidManifest.xml:21:5-23:78
MERGED from [com.android.support:support-v4:26.1.0] C:\Users\Fergunson\.gradle\caches\transforms-1\files-1.1\support-v4-26.1.0.aar\c94818dc448c362304bf3c2bf6a8e457\AndroidManifest.xml:21:5-23:54
MERGED from [com.android.support:support-v4:26.1.0] C:\Users\Fergunson\.gradle\caches\transforms-1\files-1.1\support-v4-26.1.0.aar\c94818dc448c362304bf3c2bf6a8e457\AndroidManifest.xml:21:5-23:54
MERGED from [com.android.support.constraint:constraint-layout:1.1.3] C:\Users\Fergunson\.gradle\caches\transforms-1\files-1.1\constraint-layout-1.1.3.aar\f80855f45f825ed87a7ac9dd9e4d32ad\AndroidManifest.xml:5:5-7:41
MERGED from [com.android.support.constraint:constraint-layout:1.1.3] C:\Users\Fergunson\.gradle\caches\transforms-1\files-1.1\constraint-layout-1.1.3.aar\f80855f45f825ed87a7ac9dd9e4d32ad\AndroidManifest.xml:5:5-7:41
MERGED from [com.android.support:multidex:1.0.3] C:\Users\Fergunson\.gradle\caches\transforms-1\files-1.1\multidex-1.0.3.aar\22b7df3751009aebc9efc49a9951fac0\AndroidManifest.xml:20:5-43
MERGED from [com.android.support:multidex:1.0.3] C:\Users\Fergunson\.gradle\caches\transforms-1\files-1.1\multidex-1.0.3.aar\22b7df3751009aebc9efc49a9951fac0\AndroidManifest.xml:20:5-43
MERGED from [com.android.support:recyclerview-v7:24.2.1] C:\Users\Fergunson\.gradle\caches\transforms-1\files-1.1\recyclerview-v7-24.2.1.aar\4e26decaa08fab4bf19e8a3526817e66\AndroidManifest.xml:20:5-43
MERGED from [com.android.support:recyclerview-v7:24.2.1] C:\Users\Fergunson\.gradle\caches\transforms-1\files-1.1\recyclerview-v7-24.2.1.aar\4e26decaa08fab4bf19e8a3526817e66\AndroidManifest.xml:20:5-43
MERGED from [com.android.support:animated-vector-drawable:24.2.1] C:\Users\Fergunson\.gradle\caches\transforms-1\files-1.1\animated-vector-drawable-24.2.1.aar\36f3ba6e6b65804a29f7038c9680fa93\AndroidManifest.xml:20:5-44
MERGED from [com.android.support:animated-vector-drawable:24.2.1] C:\Users\Fergunson\.gradle\caches\transforms-1\files-1.1\animated-vector-drawable-24.2.1.aar\36f3ba6e6b65804a29f7038c9680fa93\AndroidManifest.xml:20:5-44
MERGED from [com.android.support:support-vector-drawable:24.2.1] C:\Users\Fergunson\.gradle\caches\transforms-1\files-1.1\support-vector-drawable-24.2.1.aar\0e5ea6b82df5e194182d3838c1614484\AndroidManifest.xml:21:5-43
MERGED from [com.android.support:support-vector-drawable:24.2.1] C:\Users\Fergunson\.gradle\caches\transforms-1\files-1.1\support-vector-drawable-24.2.1.aar\0e5ea6b82df5e194182d3838c1614484\AndroidManifest.xml:21:5-43
MERGED from [com.android.support:support-media-compat:26.1.0] C:\Users\Fergunson\.gradle\caches\transforms-1\files-1.1\support-media-compat-26.1.0.aar\97e66577501341e0684c734686d6acd7\AndroidManifest.xml:21:5-23:63
MERGED from [com.android.support:support-media-compat:26.1.0] C:\Users\Fergunson\.gradle\caches\transforms-1\files-1.1\support-media-compat-26.1.0.aar\97e66577501341e0684c734686d6acd7\AndroidManifest.xml:21:5-23:63
MERGED from [com.android.support:support-fragment:26.1.0] C:\Users\Fergunson\.gradle\caches\transforms-1\files-1.1\support-fragment-26.1.0.aar\6de5fa51dbd37165e49b974522e20e6a\AndroidManifest.xml:21:5-23:60
MERGED from [com.android.support:support-fragment:26.1.0] C:\Users\Fergunson\.gradle\caches\transforms-1\files-1.1\support-fragment-26.1.0.aar\6de5fa51dbd37165e49b974522e20e6a\AndroidManifest.xml:21:5-23:60
MERGED from [com.android.support:support-core-utils:26.1.0] C:\Users\Fergunson\.gradle\caches\transforms-1\files-1.1\support-core-utils-26.1.0.aar\0bf3d4c16eee3d1aa88d7e7dcab71931\AndroidManifest.xml:21:5-23:61
MERGED from [com.android.support:support-core-utils:26.1.0] C:\Users\Fergunson\.gradle\caches\transforms-1\files-1.1\support-core-utils-26.1.0.aar\0bf3d4c16eee3d1aa88d7e7dcab71931\AndroidManifest.xml:21:5-23:61
MERGED from [com.android.support:support-core-ui:26.1.0] C:\Users\Fergunson\.gradle\caches\transforms-1\files-1.1\support-core-ui-26.1.0.aar\6e3397963cca2dadb9ceab45983546bd\AndroidManifest.xml:21:5-23:58
MERGED from [com.android.support:support-core-ui:26.1.0] C:\Users\Fergunson\.gradle\caches\transforms-1\files-1.1\support-core-ui-26.1.0.aar\6e3397963cca2dadb9ceab45983546bd\AndroidManifest.xml:21:5-23:58
MERGED from [com.android.support:support-compat:26.1.0] C:\Users\Fergunson\.gradle\caches\transforms-1\files-1.1\support-compat-26.1.0.aar\dfb547d372e3db53f84832477c343248\AndroidManifest.xml:21:5-23:58
MERGED from [com.android.support:support-compat:26.1.0] C:\Users\Fergunson\.gradle\caches\transforms-1\files-1.1\support-compat-26.1.0.aar\dfb547d372e3db53f84832477c343248\AndroidManifest.xml:21:5-23:58
MERGED from [android.arch.lifecycle:runtime:1.0.0] C:\Users\Fergunson\.gradle\caches\transforms-1\files-1.1\runtime-1.0.0.aar\b201c2d9f6faf66969c035c126d62dd6\AndroidManifest.xml:20:5-22:41
MERGED from [android.arch.lifecycle:runtime:1.0.0] C:\Users\Fergunson\.gradle\caches\transforms-1\files-1.1\runtime-1.0.0.aar\b201c2d9f6faf66969c035c126d62dd6\AndroidManifest.xml:20:5-22:41
INJECTED from C:\Users\Fergunson\Documents\Android\master\app\src\main\AndroidManifest.xml
INJECTED from C:\Users\Fergunson\Documents\Android\master\app\src\main\AndroidManifest.xml
	tools:overrideLibrary
		ADDED from [com.android.support:appcompat-v7:24.2.1] C:\Users\Fergunson\.gradle\caches\transforms-1\files-1.1\appcompat-v7-24.2.1.aar\da6a23146a7214a2258acd20fcfbc260\AndroidManifest.xml:23:9-75
	android:targetSdkVersion
		INJECTED from C:\Users\Fergunson\Documents\Android\master\app\src\main\AndroidManifest.xml
		ADDED from C:\Users\Fergunson\Documents\Android\master\app\src\main\AndroidManifest.xml
		INJECTED from C:\Users\Fergunson\Documents\Android\master\app\src\main\AndroidManifest.xml
	android:minSdkVersion
		INJECTED from C:\Users\Fergunson\Documents\Android\master\app\src\main\AndroidManifest.xml
		ADDED from C:\Users\Fergunson\Documents\Android\master\app\src\main\AndroidManifest.xml
		INJECTED from C:\Users\Fergunson\Documents\Android\master\app\src\main\AndroidManifest.xml
service#com.google.firebase.messaging.FirebaseMessagingService
ADDED from [com.google.firebase:firebase-messaging:17.3.4] C:\Users\Fergunson\.gradle\caches\transforms-1\files-1.1\firebase-messaging-17.3.4.aar\345af26e70a138e80826d69adcfaba4e\AndroidManifest.xml:28:9-34:19
	android:exported
		ADDED from [com.google.firebase:firebase-messaging:17.3.4] C:\Users\Fergunson\.gradle\caches\transforms-1\files-1.1\firebase-messaging-17.3.4.aar\345af26e70a138e80826d69adcfaba4e\AndroidManifest.xml:30:13-36
	android:name
		ADDED from [com.google.firebase:firebase-messaging:17.3.4] C:\Users\Fergunson\.gradle\caches\transforms-1\files-1.1\firebase-messaging-17.3.4.aar\345af26e70a138e80826d69adcfaba4e\AndroidManifest.xml:29:13-82
intent-filter#action:name:com.google.firebase.MESSAGING_EVENT
ADDED from [com.google.firebase:firebase-messaging:17.3.4] C:\Users\Fergunson\.gradle\caches\transforms-1\files-1.1\firebase-messaging-17.3.4.aar\345af26e70a138e80826d69adcfaba4e\AndroidManifest.xml:31:13-33:29
	android:priority
		ADDED from [com.google.firebase:firebase-messaging:17.3.4] C:\Users\Fergunson\.gradle\caches\transforms-1\files-1.1\firebase-messaging-17.3.4.aar\345af26e70a138e80826d69adcfaba4e\AndroidManifest.xml:31:28-51
action#com.google.firebase.MESSAGING_EVENT
ADDED from [com.google.firebase:firebase-messaging:17.3.4] C:\Users\Fergunson\.gradle\caches\transforms-1\files-1.1\firebase-messaging-17.3.4.aar\345af26e70a138e80826d69adcfaba4e\AndroidManifest.xml:32:17-78
	android:name
		ADDED from [com.google.firebase:firebase-messaging:17.3.4] C:\Users\Fergunson\.gradle\caches\transforms-1\files-1.1\firebase-messaging-17.3.4.aar\345af26e70a138e80826d69adcfaba4e\AndroidManifest.xml:32:25-75
uses-permission#android.permission.ACCESS_NETWORK_STATE
ADDED from [com.google.android.gms:play-services-maps:16.0.0] C:\Users\Fergunson\.gradle\caches\transforms-1\files-1.1\play-services-maps-16.0.0.aar\e9c47bd033686e3f8ce2b09aadaa74ad\AndroidManifest.xml:23:5-79
MERGED from [com.google.firebase:firebase-iid:17.0.4] C:\Users\Fergunson\.gradle\caches\transforms-1\files-1.1\firebase-iid-17.0.4.aar\e4ef93544e42eb8655f1ee13632bcb9f\AndroidManifest.xml:22:5-79
MERGED from [com.google.firebase:firebase-iid:17.0.4] C:\Users\Fergunson\.gradle\caches\transforms-1\files-1.1\firebase-iid-17.0.4.aar\e4ef93544e42eb8655f1ee13632bcb9f\AndroidManifest.xml:22:5-79
	android:name
		ADDED from [com.google.android.gms:play-services-maps:16.0.0] C:\Users\Fergunson\.gradle\caches\transforms-1\files-1.1\play-services-maps-16.0.0.aar\e9c47bd033686e3f8ce2b09aadaa74ad\AndroidManifest.xml:23:22-76
uses-feature#0x00020000
ADDED from [com.google.android.gms:play-services-maps:16.0.0] C:\Users\Fergunson\.gradle\caches\transforms-1\files-1.1\play-services-maps-16.0.0.aar\e9c47bd033686e3f8ce2b09aadaa74ad\AndroidManifest.xml:26:5-28:35
	android:glEsVersion
		ADDED from [com.google.android.gms:play-services-maps:16.0.0] C:\Users\Fergunson\.gradle\caches\transforms-1\files-1.1\play-services-maps-16.0.0.aar\e9c47bd033686e3f8ce2b09aadaa74ad\AndroidManifest.xml:27:9-41
	android:required
		ADDED from [com.google.android.gms:play-services-maps:16.0.0] C:\Users\Fergunson\.gradle\caches\transforms-1\files-1.1\play-services-maps-16.0.0.aar\e9c47bd033686e3f8ce2b09aadaa74ad\AndroidManifest.xml:28:9-32
activity#com.google.android.gms.auth.api.signin.internal.SignInHubActivity
ADDED from [com.google.android.gms:play-services-auth:16.0.1] C:\Users\Fergunson\.gradle\caches\transforms-1\files-1.1\play-services-auth-16.0.1.aar\f00e955047842bd16a6a2ceef8236d11\AndroidManifest.xml:23:9-27:75
	android:excludeFromRecents
		ADDED from [com.google.android.gms:play-services-auth:16.0.1] C:\Users\Fergunson\.gradle\caches\transforms-1\files-1.1\play-services-auth-16.0.1.aar\f00e955047842bd16a6a2ceef8236d11\AndroidManifest.xml:25:13-46
	android:exported
		ADDED from [com.google.android.gms:play-services-auth:16.0.1] C:\Users\Fergunson\.gradle\caches\transforms-1\files-1.1\play-services-auth-16.0.1.aar\f00e955047842bd16a6a2ceef8236d11\AndroidManifest.xml:26:13-37
	android:theme
		ADDED from [com.google.android.gms:play-services-auth:16.0.1] C:\Users\Fergunson\.gradle\caches\transforms-1\files-1.1\play-services-auth-16.0.1.aar\f00e955047842bd16a6a2ceef8236d11\AndroidManifest.xml:27:13-72
	android:name
		ADDED from [com.google.android.gms:play-services-auth:16.0.1] C:\Users\Fergunson\.gradle\caches\transforms-1\files-1.1\play-services-auth-16.0.1.aar\f00e955047842bd16a6a2ceef8236d11\AndroidManifest.xml:24:13-93
service#com.google.android.gms.auth.api.signin.RevocationBoundService
ADDED from [com.google.android.gms:play-services-auth:16.0.1] C:\Users\Fergunson\.gradle\caches\transforms-1\files-1.1\play-services-auth-16.0.1.aar\f00e955047842bd16a6a2ceef8236d11\AndroidManifest.xml:33:9-36:110
	android:exported
		ADDED from [com.google.android.gms:play-services-auth:16.0.1] C:\Users\Fergunson\.gradle\caches\transforms-1\files-1.1\play-services-auth-16.0.1.aar\f00e955047842bd16a6a2ceef8236d11\AndroidManifest.xml:35:13-36
	android:permission
		ADDED from [com.google.android.gms:play-services-auth:16.0.1] C:\Users\Fergunson\.gradle\caches\transforms-1\files-1.1\play-services-auth-16.0.1.aar\f00e955047842bd16a6a2ceef8236d11\AndroidManifest.xml:36:13-107
	android:name
		ADDED from [com.google.android.gms:play-services-auth:16.0.1] C:\Users\Fergunson\.gradle\caches\transforms-1\files-1.1\play-services-auth-16.0.1.aar\f00e955047842bd16a6a2ceef8236d11\AndroidManifest.xml:34:13-89
uses-permission#android.permission.WAKE_LOCK
ADDED from [com.google.firebase:firebase-iid:17.0.4] C:\Users\Fergunson\.gradle\caches\transforms-1\files-1.1\firebase-iid-17.0.4.aar\e4ef93544e42eb8655f1ee13632bcb9f\AndroidManifest.xml:24:5-68
	android:name
		ADDED from [com.google.firebase:firebase-iid:17.0.4] C:\Users\Fergunson\.gradle\caches\transforms-1\files-1.1\firebase-iid-17.0.4.aar\e4ef93544e42eb8655f1ee13632bcb9f\AndroidManifest.xml:24:22-65
uses-permission#com.google.android.c2dm.permission.RECEIVE
ADDED from [com.google.firebase:firebase-iid:17.0.4] C:\Users\Fergunson\.gradle\caches\transforms-1\files-1.1\firebase-iid-17.0.4.aar\e4ef93544e42eb8655f1ee13632bcb9f\AndroidManifest.xml:26:5-82
	android:name
		ADDED from [com.google.firebase:firebase-iid:17.0.4] C:\Users\Fergunson\.gradle\caches\transforms-1\files-1.1\firebase-iid-17.0.4.aar\e4ef93544e42eb8655f1ee13632bcb9f\AndroidManifest.xml:26:22-79
service#com.google.firebase.components.ComponentDiscoveryService
ADDED from [com.google.firebase:firebase-iid:17.0.4] C:\Users\Fergunson\.gradle\caches\transforms-1\files-1.1\firebase-iid-17.0.4.aar\e4ef93544e42eb8655f1ee13632bcb9f\AndroidManifest.xml:29:9-35:19
	android:exported
		ADDED from [com.google.firebase:firebase-iid:17.0.4] C:\Users\Fergunson\.gradle\caches\transforms-1\files-1.1\firebase-iid-17.0.4.aar\e4ef93544e42eb8655f1ee13632bcb9f\AndroidManifest.xml:31:13-37
	android:name
		ADDED from [com.google.firebase:firebase-iid:17.0.4] C:\Users\Fergunson\.gradle\caches\transforms-1\files-1.1\firebase-iid-17.0.4.aar\e4ef93544e42eb8655f1ee13632bcb9f\AndroidManifest.xml:30:13-84
meta-data#com.google.firebase.components:com.google.firebase.iid.Registrar
ADDED from [com.google.firebase:firebase-iid:17.0.4] C:\Users\Fergunson\.gradle\caches\transforms-1\files-1.1\firebase-iid-17.0.4.aar\e4ef93544e42eb8655f1ee13632bcb9f\AndroidManifest.xml:32:13-34:85
	android:value
		ADDED from [com.google.firebase:firebase-iid:17.0.4] C:\Users\Fergunson\.gradle\caches\transforms-1\files-1.1\firebase-iid-17.0.4.aar\e4ef93544e42eb8655f1ee13632bcb9f\AndroidManifest.xml:34:17-82
	android:name
		ADDED from [com.google.firebase:firebase-iid:17.0.4] C:\Users\Fergunson\.gradle\caches\transforms-1\files-1.1\firebase-iid-17.0.4.aar\e4ef93544e42eb8655f1ee13632bcb9f\AndroidManifest.xml:33:17-96
receiver#com.google.firebase.iid.FirebaseInstanceIdReceiver
ADDED from [com.google.firebase:firebase-iid:17.0.4] C:\Users\Fergunson\.gradle\caches\transforms-1\files-1.1\firebase-iid-17.0.4.aar\e4ef93544e42eb8655f1ee13632bcb9f\AndroidManifest.xml:37:9-44:20
	android:exported
		ADDED from [com.google.firebase:firebase-iid:17.0.4] C:\Users\Fergunson\.gradle\caches\transforms-1\files-1.1\firebase-iid-17.0.4.aar\e4ef93544e42eb8655f1ee13632bcb9f\AndroidManifest.xml:39:13-36
	android:permission
		ADDED from [com.google.firebase:firebase-iid:17.0.4] C:\Users\Fergunson\.gradle\caches\transforms-1\files-1.1\firebase-iid-17.0.4.aar\e4ef93544e42eb8655f1ee13632bcb9f\AndroidManifest.xml:40:13-73
	android:name
		ADDED from [com.google.firebase:firebase-iid:17.0.4] C:\Users\Fergunson\.gradle\caches\transforms-1\files-1.1\firebase-iid-17.0.4.aar\e4ef93544e42eb8655f1ee13632bcb9f\AndroidManifest.xml:38:13-78
intent-filter#action:name:com.google.android.c2dm.intent.RECEIVE
ADDED from [com.google.firebase:firebase-iid:17.0.4] C:\Users\Fergunson\.gradle\caches\transforms-1\files-1.1\firebase-iid-17.0.4.aar\e4ef93544e42eb8655f1ee13632bcb9f\AndroidManifest.xml:41:13-43:29
action#com.google.android.c2dm.intent.RECEIVE
ADDED from [com.google.firebase:firebase-iid:17.0.4] C:\Users\Fergunson\.gradle\caches\transforms-1\files-1.1\firebase-iid-17.0.4.aar\e4ef93544e42eb8655f1ee13632bcb9f\AndroidManifest.xml:42:17-81
	android:name
		ADDED from [com.google.firebase:firebase-iid:17.0.4] C:\Users\Fergunson\.gradle\caches\transforms-1\files-1.1\firebase-iid-17.0.4.aar\e4ef93544e42eb8655f1ee13632bcb9f\AndroidManifest.xml:42:25-78
service#com.google.firebase.iid.FirebaseInstanceIdService
ADDED from [com.google.firebase:firebase-iid:17.0.4] C:\Users\Fergunson\.gradle\caches\transforms-1\files-1.1\firebase-iid-17.0.4.aar\e4ef93544e42eb8655f1ee13632bcb9f\AndroidManifest.xml:50:9-56:19
	android:exported
		ADDED from [com.google.firebase:firebase-iid:17.0.4] C:\Users\Fergunson\.gradle\caches\transforms-1\files-1.1\firebase-iid-17.0.4.aar\e4ef93544e42eb8655f1ee13632bcb9f\AndroidManifest.xml:52:13-36
	android:name
		ADDED from [com.google.firebase:firebase-iid:17.0.4] C:\Users\Fergunson\.gradle\caches\transforms-1\files-1.1\firebase-iid-17.0.4.aar\e4ef93544e42eb8655f1ee13632bcb9f\AndroidManifest.xml:51:13-77
intent-filter#action:name:com.google.firebase.INSTANCE_ID_EVENT
ADDED from [com.google.firebase:firebase-iid:17.0.4] C:\Users\Fergunson\.gradle\caches\transforms-1\files-1.1\firebase-iid-17.0.4.aar\e4ef93544e42eb8655f1ee13632bcb9f\AndroidManifest.xml:53:13-55:29
	android:priority
		ADDED from [com.google.firebase:firebase-iid:17.0.4] C:\Users\Fergunson\.gradle\caches\transforms-1\files-1.1\firebase-iid-17.0.4.aar\e4ef93544e42eb8655f1ee13632bcb9f\AndroidManifest.xml:53:28-51
action#com.google.firebase.INSTANCE_ID_EVENT
ADDED from [com.google.firebase:firebase-iid:17.0.4] C:\Users\Fergunson\.gradle\caches\transforms-1\files-1.1\firebase-iid-17.0.4.aar\e4ef93544e42eb8655f1ee13632bcb9f\AndroidManifest.xml:54:17-80
	android:name
		ADDED from [com.google.firebase:firebase-iid:17.0.4] C:\Users\Fergunson\.gradle\caches\transforms-1\files-1.1\firebase-iid-17.0.4.aar\e4ef93544e42eb8655f1ee13632bcb9f\AndroidManifest.xml:54:25-77
provider#com.google.firebase.provider.FirebaseInitProvider
ADDED from [com.google.firebase:firebase-common:16.0.3] C:\Users\Fergunson\.gradle\caches\transforms-1\files-1.1\firebase-common-16.0.3.aar\fb1fa454f4f9249963f7559571b56cee\AndroidManifest.xml:10:9-14:39
	android:authorities
		ADDED from [com.google.firebase:firebase-common:16.0.3] C:\Users\Fergunson\.gradle\caches\transforms-1\files-1.1\firebase-common-16.0.3.aar\fb1fa454f4f9249963f7559571b56cee\AndroidManifest.xml:12:13-72
	android:exported
		ADDED from [com.google.firebase:firebase-common:16.0.3] C:\Users\Fergunson\.gradle\caches\transforms-1\files-1.1\firebase-common-16.0.3.aar\fb1fa454f4f9249963f7559571b56cee\AndroidManifest.xml:13:13-37
	android:initOrder
		ADDED from [com.google.firebase:firebase-common:16.0.3] C:\Users\Fergunson\.gradle\caches\transforms-1\files-1.1\firebase-common-16.0.3.aar\fb1fa454f4f9249963f7559571b56cee\AndroidManifest.xml:14:13-36
	android:name
		ADDED from [com.google.firebase:firebase-common:16.0.3] C:\Users\Fergunson\.gradle\caches\transforms-1\files-1.1\firebase-common-16.0.3.aar\fb1fa454f4f9249963f7559571b56cee\AndroidManifest.xml:11:13-77
activity#com.google.android.gms.common.api.GoogleApiActivity
ADDED from [com.google.android.gms:play-services-base:16.0.1] C:\Users\Fergunson\.gradle\caches\transforms-1\files-1.1\play-services-base-16.0.1.aar\2d7361cf6b12c199d3563a9880d88c6f\AndroidManifest.xml:23:9-26:75
	android:exported
		ADDED from [com.google.android.gms:play-services-base:16.0.1] C:\Users\Fergunson\.gradle\caches\transforms-1\files-1.1\play-services-base-16.0.1.aar\2d7361cf6b12c199d3563a9880d88c6f\AndroidManifest.xml:25:13-37
	android:theme
		ADDED from [com.google.android.gms:play-services-base:16.0.1] C:\Users\Fergunson\.gradle\caches\transforms-1\files-1.1\play-services-base-16.0.1.aar\2d7361cf6b12c199d3563a9880d88c6f\AndroidManifest.xml:26:13-72
	android:name
		ADDED from [com.google.android.gms:play-services-base:16.0.1] C:\Users\Fergunson\.gradle\caches\transforms-1\files-1.1\play-services-base-16.0.1.aar\2d7361cf6b12c199d3563a9880d88c6f\AndroidManifest.xml:24:13-79
meta-data#com.google.android.gms.version
ADDED from [com.google.android.gms:play-services-basement:16.0.1] C:\Users\Fergunson\.gradle\caches\transforms-1\files-1.1\play-services-basement-16.0.1.aar\8761bde231eae24adaa6643b550a04fc\AndroidManifest.xml:23:9-25:69
	android:value
		ADDED from [com.google.android.gms:play-services-basement:16.0.1] C:\Users\Fergunson\.gradle\caches\transforms-1\files-1.1\play-services-basement-16.0.1.aar\8761bde231eae24adaa6643b550a04fc\AndroidManifest.xml:25:13-66
	android:name
		ADDED from [com.google.android.gms:play-services-basement:16.0.1] C:\Users\Fergunson\.gradle\caches\transforms-1\files-1.1\play-services-basement-16.0.1.aar\8761bde231eae24adaa6643b550a04fc\AndroidManifest.xml:24:13-58
meta-data#android.support.VERSION
ADDED from [com.android.support:support-v4:26.1.0] C:\Users\Fergunson\.gradle\caches\transforms-1\files-1.1\support-v4-26.1.0.aar\c94818dc448c362304bf3c2bf6a8e457\AndroidManifest.xml:26:9-28:38
MERGED from [com.android.support:support-media-compat:26.1.0] C:\Users\Fergunson\.gradle\caches\transforms-1\files-1.1\support-media-compat-26.1.0.aar\97e66577501341e0684c734686d6acd7\AndroidManifest.xml:26:9-28:38
MERGED from [com.android.support:support-media-compat:26.1.0] C:\Users\Fergunson\.gradle\caches\transforms-1\files-1.1\support-media-compat-26.1.0.aar\97e66577501341e0684c734686d6acd7\AndroidManifest.xml:26:9-28:38
MERGED from [com.android.support:support-fragment:26.1.0] C:\Users\Fergunson\.gradle\caches\transforms-1\files-1.1\support-fragment-26.1.0.aar\6de5fa51dbd37165e49b974522e20e6a\AndroidManifest.xml:26:9-28:38
MERGED from [com.android.support:support-fragment:26.1.0] C:\Users\Fergunson\.gradle\caches\transforms-1\files-1.1\support-fragment-26.1.0.aar\6de5fa51dbd37165e49b974522e20e6a\AndroidManifest.xml:26:9-28:38
MERGED from [com.android.support:support-core-utils:26.1.0] C:\Users\Fergunson\.gradle\caches\transforms-1\files-1.1\support-core-utils-26.1.0.aar\0bf3d4c16eee3d1aa88d7e7dcab71931\AndroidManifest.xml:26:9-28:38
MERGED from [com.android.support:support-core-utils:26.1.0] C:\Users\Fergunson\.gradle\caches\transforms-1\files-1.1\support-core-utils-26.1.0.aar\0bf3d4c16eee3d1aa88d7e7dcab71931\AndroidManifest.xml:26:9-28:38
MERGED from [com.android.support:support-core-ui:26.1.0] C:\Users\Fergunson\.gradle\caches\transforms-1\files-1.1\support-core-ui-26.1.0.aar\6e3397963cca2dadb9ceab45983546bd\AndroidManifest.xml:26:9-28:38
MERGED from [com.android.support:support-core-ui:26.1.0] C:\Users\Fergunson\.gradle\caches\transforms-1\files-1.1\support-core-ui-26.1.0.aar\6e3397963cca2dadb9ceab45983546bd\AndroidManifest.xml:26:9-28:38
MERGED from [com.android.support:support-compat:26.1.0] C:\Users\Fergunson\.gradle\caches\transforms-1\files-1.1\support-compat-26.1.0.aar\dfb547d372e3db53f84832477c343248\AndroidManifest.xml:26:9-28:38
MERGED from [com.android.support:support-compat:26.1.0] C:\Users\Fergunson\.gradle\caches\transforms-1\files-1.1\support-compat-26.1.0.aar\dfb547d372e3db53f84832477c343248\AndroidManifest.xml:26:9-28:38
	android:value
		ADDED from [com.android.support:support-v4:26.1.0] C:\Users\Fergunson\.gradle\caches\transforms-1\files-1.1\support-v4-26.1.0.aar\c94818dc448c362304bf3c2bf6a8e457\AndroidManifest.xml:28:13-35
	android:name
		ADDED from [com.android.support:support-v4:26.1.0] C:\Users\Fergunson\.gradle\caches\transforms-1\files-1.1\support-v4-26.1.0.aar\c94818dc448c362304bf3c2bf6a8e457\AndroidManifest.xml:27:13-51
meta-data#android.arch.lifecycle.VERSION
ADDED from [android.arch.lifecycle:runtime:1.0.0] C:\Users\Fergunson\.gradle\caches\transforms-1\files-1.1\runtime-1.0.0.aar\b201c2d9f6faf66969c035c126d62dd6\AndroidManifest.xml:25:9-27:47
	android:value
		ADDED from [android.arch.lifecycle:runtime:1.0.0] C:\Users\Fergunson\.gradle\caches\transforms-1\files-1.1\runtime-1.0.0.aar\b201c2d9f6faf66969c035c126d62dd6\AndroidManifest.xml:27:13-44
	android:name
		ADDED from [android.arch.lifecycle:runtime:1.0.0] C:\Users\Fergunson\.gradle\caches\transforms-1\files-1.1\runtime-1.0.0.aar\b201c2d9f6faf66969c035c126d62dd6\AndroidManifest.xml:26:13-58
